module github.com/cespedes/katiuskas-intranet

go 1.23.4

require (
	github.com/go-telegram-bot-api/telegram-bot-api/v5 v5.5.1
	github.com/gorilla/mux v1.8.1
	github.com/gorilla/sessions v1.2.2
	github.com/jmoiron/sqlx v1.3.5
	github.com/lib/pq v1.10.9
)

require github.com/gorilla/securecookie v1.1.2 // indirect
